
select firstname from names n1 where EXISTS (select 1 from names n2 order by count(n1.firstname));
select firstname from names n1 where count(firstname||lastname) < 1;
select firstname from names n1 where EXISTS (select 1 from names n2 order by exists(select 1 from names n2 order by count(n1.firstname)));
select firstname from names n1 where EXISTS (select 1 from names n2 order by count(n1.firstname||n1.lastname));
select firstname from names n1 where EXISTS (select 1 from names n2 order by exists(select 1 from names n2 order by count(n1.firstname||n1.lastname)));
select firstname from names n1 where EXISTS (select 1 from names n2 order by count(n1.firstname||n2.lastname));
select all 1 from names c where exists (select 1 from names n2 group by n2.id having count(c.id) > 2) GROUP BY c.id;
select 1 from names n0 group by firstname having EXISTS (select firstname from names n1 where EXISTS (select 1 from names n2 order by count(n1.firstname)));
[ERROR]: ERR_AGGREGATE_FUNCTION_WHERE: Aggregate functions are not allowed in WHERE
LINE 1: ...re EXISTS (select 1 from names n2 order by count(n1.firstname));
                                                            ^^^^^^^^^^^^
[ERROR]: ERR_AGGREGATE_FUNCTION_WHERE: Aggregate functions are not allowed in WHERE
LINE 1: ...t firstname from names n1 where count(firstname||lastname) < 1;
                                           ^^^^^
[ERROR]: ERR_AGGREGATE_FUNCTION_WHERE: Aggregate functions are not allowed in WHERE
LINE 1: ...by exists(select 1 from names n2 order by count(n1.firstname)));
                                                           ^^^^^^^^^^^^
[ERROR]: ERR_AGGREGATE_FUNCTION_WHERE: Aggregate functions are not allowed in WHERE
LINE 1: ...lect 1 from names n2 order by count(n1.firstname||n1.lastname));
                                               ^^^^^^^^^^^^
[ERROR]: ERR_AGGREGATE_FUNCTION_WHERE: Aggregate functions are not allowed in WHERE
LINE 1: ...ect 1 from names n2 order by count(n1.firstname||n1.lastname));
                                                            ^^^^^^^^^^^
[ERROR]: ERR_AGGREGATE_FUNCTION_WHERE: Aggregate functions are not allowed in WHERE
LINE 1: ...ect 1 from names n2 order by count(n1.firstname||n1.lastname)));
                                              ^^^^^^^^^^^^
[ERROR]: ERR_AGGREGATE_FUNCTION_WHERE: Aggregate functions are not allowed in WHERE
LINE 1: ...ct 1 from names n2 order by count(n1.firstname||n1.lastname)));
                                                           ^^^^^^^^^^^
[ERROR]: ERR_AGGREGATE_FUNCTION_WHERE: Aggregate functions are not allowed in WHERE
LINE 1: ...lect 1 from names n2 order by count(n1.firstname||n2.lastname));
                                               ^^^^^^^^^^^^
[ERROR]: ERR_AGGREGATE_FUNCTION_WHERE: Aggregate functions are not allowed in WHERE
LINE 1: ...m names n2 group by n2.id having count(c.id) > 2) GROUP BY c.id;
                                                  ^^^^
[ERROR]: ERR_AGGREGATE_FUNCTION_WHERE: Aggregate functions are not allowed in WHERE
LINE 1: ...e EXISTS (select 1 from names n2 order by count(n1.firstname)));
                                                           ^^^^^^^^^^^^
