
-- TC019 : OCTO483 : CREATE TABLE works with multiple characters as DELIM qualifier and validate xrefs

CREATE TABLE DELIMNAMES (id INTEGER PRIMARY KEY, firstName VARCHAR(30), lastName VARCHAR(30), middleInitial VARCHAR(1), age INTEGER) DELIM (123, 124, 125) GLOBAL "^delimnames(keys(""id""))";

SELECT * FROM delimnames;
SELECT * FROM delimnames WHERE firstname = 'Zero';

CREATE TABLE
ID|FIRSTNAME|LASTNAME|MIDDLEINITIAL|AGE
0|Zero|Cool|B|25
1|Acid|Burn|I|22
2|Cereal|Killer|A|59
3|Lord|Nikon|O|
4|Joey|||42
5|Zero|Cool|B|25
(6 rows)
ID|FIRSTNAME|LASTNAME|MIDDLEINITIAL|AGE
0|Zero|Cool|B|25
5|Zero|Cool|B|25
(2 rows)
