
-- TCF000 : OCTO671 : Test of ERR_CANNOT_CREATE_FUNCTION error.

CREATE FUNCTION ABS(INTEGER) RETURNS NUMERIC AS $$ABS^%ydboctosqlfunctions;
CREATE FUNCTION ABS(NUMERIC) RETURNS NUMERIC AS $$ABS^%ydboctosqlfunctions;

[ERROR]: ERR_CANNOT_CREATE_FUNCTION: Function 'ABS(INTEGER)' already exists with same argument types
[ERROR]: ERR_CANNOT_CREATE_FUNCTION: Function 'ABS(NUMERIC)' already exists with same argument types
