
-- TCF025 : OCTO562 : CREATE FUNCTION supports type coercion with function overloading

CREATE FUNCTION OVERLOADEDFUNC (INTEGER, NUMERIC, VARCHAR) RETURNS VARCHAR AS $$^OVERLOADEDFUNC;
CREATE FUNCTION OVERLOADEDFUNC (NUMERIC, NUMERIC, VARCHAR) RETURNS VARCHAR AS $$^OVERLOADEDFUNC;
CREATE FUNCTION OVERLOADEDFUNC (VARCHAR, INTEGER) RETURNS VARCHAR AS $$^OVERLOADEDFUNC;
-- Since return types are not considered when distinguishing overloaded functions, only the most recently defined return type will be used
CREATE FUNCTION OVERLOADEDFUNC (BOOLEAN) RETURNS VARCHAR AS $$^OVERLOADEDFUNC;
DROP FUNCTION OVERLOADEDFUNC(BOOLEAN);
CREATE FUNCTION OVERLOADEDFUNC (BOOLEAN) RETURNS BOOLEAN AS $$^OVERLOADEDFUNC;

-- Parameter types: INTEGER, NUMERIC, VARCHAR
SELECT OVERLOADEDFUNC(1.0::integer, '2.5'::numeric, 'hello') FROM names;

-- Parameter types: NUMERIC, NUMERIC, VARCHAR
SELECT OVERLOADEDFUNC(1.2, 2::numeric, 1::varchar) FROM names;

-- Parameter types: VARCHAR, INTEGER
SELECT OVERLOADEDFUNC('hello', 2.5::integer) FROM names;

-- Parameter type: BOOLEAN; return type: BOOLEAN
SELECT OVERLOADEDFUNC(1::boolean) FROM names;

-- Parameter type: BOOLEAN; return type: BOOLEAN
SELECT  * FROM names where firstname = OVERLOADEDFUNC(true)::varchar;

CREATE FUNCTION
CREATE FUNCTION
CREATE FUNCTION
CREATE FUNCTION
DROP FUNCTION
CREATE FUNCTION
OVERLOADEDFUNC
12.5hello
12.5hello
12.5hello
12.5hello
12.5hello
12.5hello
(6 rows)
OVERLOADEDFUNC
1.221
1.221
1.221
1.221
1.221
1.221
(6 rows)
OVERLOADEDFUNC
hello2
hello2
hello2
hello2
hello2
hello2
(6 rows)
OVERLOADEDFUNC
1
1
1
1
1
1
(6 rows)
ID|FIRSTNAME|LASTNAME
(0 rows)
