# Run 8 queries from TCF023.sql that use ABS and REPLACE functions
# Verify generated _ydbocto*.m and _ydbocto*.o plan files
_ydboctoP*.m
_ydboctoP*.o
_ydboctoP*.m
_ydboctoP*.o
_ydboctoP*.m
_ydboctoP*.o
_ydboctoP*.m
_ydboctoP*.o
_ydboctoP*.m
_ydboctoP*.o
_ydboctoP*.m
_ydboctoP*.o
_ydboctoP*.m
_ydboctoP*.o
_ydboctoP*.m
_ydboctoP*.o
# Verify how many queries created new plans
[ INFO] PATH:LINENUM DATE TIME: INFO_M_PLAN: Generating M file [$PWD/_ydboctoP*.m] (to execute SQL query)
[ INFO] PATH:LINENUM DATE TIME: INFO_M_PLAN: Generating M file [$PWD/_ydboctoP*.m] (to execute SQL query)
[ INFO] PATH:LINENUM DATE TIME: INFO_M_PLAN: Generating M file [$PWD/_ydboctoP*.m] (to execute SQL query)
[ INFO] PATH:LINENUM DATE TIME: INFO_M_PLAN: Generating M file [$PWD/_ydboctoP*.m] (to execute SQL query)
[ INFO] PATH:LINENUM DATE TIME: INFO_M_PLAN: Generating M file [$PWD/_ydboctoP*.m] (to execute SQL query)
[ INFO] PATH:LINENUM DATE TIME: INFO_M_PLAN: Generating M file [$PWD/_ydboctoP*.m] (to execute SQL query)
[ INFO] PATH:LINENUM DATE TIME: INFO_M_PLAN: Generating M file [$PWD/_ydboctoP*.m] (to execute SQL query)
[ INFO] PATH:LINENUM DATE TIME: INFO_M_PLAN: Generating M file [$PWD/_ydboctoP*.m] (to execute SQL query)
# Verify db nodes correctly represent tables and plans (including xref plans) that rely on them
^%ydboctoocto("tableplans","NAMES","$PWD/_ydboctoP*.m")=""
^%ydboctoocto("tableplans","NAMES","$PWD/_ydboctoP*.m")=""
^%ydboctoocto("tableplans","NAMES","$PWD/_ydboctoP*.m")=""
^%ydboctoocto("tableplans","NAMES","$PWD/_ydboctoP*.m")=""
^%ydboctoocto("tableplans","NAMES","$PWD/_ydboctoP*.m")=""
^%ydboctoocto("tableplans","NAMES","$PWD/_ydboctoP*.m")=""
^%ydboctoocto("tableplans","NAMES","$PWD/_ydboctoP*.m")=""
^%ydboctoocto("tableplans","NAMES","$PWD/_ydboctoP*.m")=""
# Verify db nodes correctly represent functions and plans that rely on them
^%ydboctoocto("functions","ABS","%ydboctoFXjpLNKLu1sElo0JiZVgdDG","plan_metadata","$PWD/_ydboctoP*.m")=""
^%ydboctoocto("functions","ABS","%ydboctoFXjpLNKLu1sElo0JiZVgdDG","plan_metadata","$PWD/_ydboctoP*.m")=""
^%ydboctoocto("functions","ABS","%ydboctoFXjpLNKLu1sElo0JiZVgdDG","plan_metadata","$PWD/_ydboctoP*.m")=""
^%ydboctoocto("functions","ABS","%ydboctoFXjpLNKLu1sElo0JiZVgdDG","plan_metadata","$PWD/_ydboctoP*.m")=""
^%ydboctoocto("functions","ABS","%ydboctoFXjpLNKLu1sElo0JiZVgdDG","plan_metadata","$PWD/_ydboctoP*.m")=""
^%ydboctoocto("functions","ABS","%ydboctoFXjpLNKLu1sElo0JiZVgdDG","plan_metadata","$PWD/_ydboctoP*.m")=""
^%ydboctoocto("functions","REPLACE","%ydboctoFrvGFWZceNJDlLJu4e6S5I1","plan_metadata","$PWD/_ydboctoP*.m")=""
^%ydboctoocto("functions","REPLACE","%ydboctoFrvGFWZceNJDlLJu4e6S5I1","plan_metadata","$PWD/_ydboctoP*.m")=""
^%ydboctoocto("functions","REPLACE","%ydboctoFrvGFWZceNJDlLJu4e6S5I1","plan_metadata","$PWD/_ydboctoP*.m")=""
^%ydboctoocto("functions","REPLACE","%ydboctoFrvGFWZceNJDlLJu4e6S5I1","plan_metadata","$PWD/_ydboctoP*.m")=""
^%ydboctoocto("functions","REPLACE","%ydboctoFrvGFWZceNJDlLJu4e6S5I1","plan_metadata","$PWD/_ydboctoP*.m")=""
^%ydboctoocto("functions","REPLACE","%ydboctoFrvGFWZceNJDlLJu4e6S5I1","plan_metadata","$PWD/_ydboctoP*.m")=""
# Verify db nodes for plans that are reusable (i.e. do not need to be regenerated)
^%ydboctoocto("plan_metadata","$PWD/_ydboctoP*.m","output_key")="3"
^%ydboctoocto("plan_metadata","$PWD/_ydboctoP*.m","output_key")="3"
^%ydboctoocto("plan_metadata","$PWD/_ydboctoP*.m","output_key")="3"
^%ydboctoocto("plan_metadata","$PWD/_ydboctoP*.m","output_key")="3"
^%ydboctoocto("plan_metadata","$PWD/_ydboctoP*.m","output_key")="3"
^%ydboctoocto("plan_metadata","$PWD/_ydboctoP*.m","output_key")="3"
^%ydboctoocto("plan_metadata","$PWD/_ydboctoP*.m","output_key")="3"
^%ydboctoocto("plan_metadata","$PWD/_ydboctoP*.m","output_key")="3"
# Verify db nodes correctly represent cross-references
# Verify db nodes correctly represent src/obj dirs of generated plans (including xref plans)
^%ydboctoocto("plandirs","$PWD/_ydboctoP*.m","$PWD/_ydboctoP*.o")=""
^%ydboctoocto("plandirs","$PWD/_ydboctoP*.m","$PWD/_ydboctoP*.o")=""
^%ydboctoocto("plandirs","$PWD/_ydboctoP*.m","$PWD/_ydboctoP*.o")=""
^%ydboctoocto("plandirs","$PWD/_ydboctoP*.m","$PWD/_ydboctoP*.o")=""
^%ydboctoocto("plandirs","$PWD/_ydboctoP*.m","$PWD/_ydboctoP*.o")=""
^%ydboctoocto("plandirs","$PWD/_ydboctoP*.m","$PWD/_ydboctoP*.o")=""
^%ydboctoocto("plandirs","$PWD/_ydboctoP*.m","$PWD/_ydboctoP*.o")=""
^%ydboctoocto("plandirs","$PWD/_ydboctoP*.m","$PWD/_ydboctoP*.o")=""
# Verify currently installed triggers

# Rerun CREATE FUNCTION of REPLACE
DROP FUNCTION
CREATE FUNCTION
# Verify generated _ydbocto*.m and _ydbocto*.o plan files
_ydboctoP*.m
_ydboctoP*.o
_ydboctoP*.m
_ydboctoP*.o
# Verify how many queries created new plans
# Verify db nodes correctly represent tables and plans (including xref plans) that rely on them
^%ydboctoocto("tableplans","NAMES","$PWD/_ydboctoP*.m")=""
^%ydboctoocto("tableplans","NAMES","$PWD/_ydboctoP*.m")=""
^%ydboctoocto("tableplans","NAMES","$PWD/_ydboctoP*.m")=""
^%ydboctoocto("tableplans","NAMES","$PWD/_ydboctoP*.m")=""
^%ydboctoocto("tableplans","NAMES","$PWD/_ydboctoP*.m")=""
^%ydboctoocto("tableplans","NAMES","$PWD/_ydboctoP*.m")=""
^%ydboctoocto("tableplans","NAMES","$PWD/_ydboctoP*.m")=""
^%ydboctoocto("tableplans","NAMES","$PWD/_ydboctoP*.m")=""
# Verify db nodes correctly represent functions and plans that rely on them
^%ydboctoocto("functions","ABS","%ydboctoFXjpLNKLu1sElo0JiZVgdDG","plan_metadata","$PWD/_ydboctoP*.m")=""
^%ydboctoocto("functions","ABS","%ydboctoFXjpLNKLu1sElo0JiZVgdDG","plan_metadata","$PWD/_ydboctoP*.m")=""
^%ydboctoocto("functions","ABS","%ydboctoFXjpLNKLu1sElo0JiZVgdDG","plan_metadata","$PWD/_ydboctoP*.m")=""
^%ydboctoocto("functions","ABS","%ydboctoFXjpLNKLu1sElo0JiZVgdDG","plan_metadata","$PWD/_ydboctoP*.m")=""
^%ydboctoocto("functions","ABS","%ydboctoFXjpLNKLu1sElo0JiZVgdDG","plan_metadata","$PWD/_ydboctoP*.m")=""
^%ydboctoocto("functions","ABS","%ydboctoFXjpLNKLu1sElo0JiZVgdDG","plan_metadata","$PWD/_ydboctoP*.m")=""
# Verify db nodes for plans that are reusable (i.e. do not need to be regenerated)
^%ydboctoocto("plan_metadata","$PWD/_ydboctoP*.m","output_key")="3"
^%ydboctoocto("plan_metadata","$PWD/_ydboctoP*.m","output_key")="3"
# Verify db nodes correctly represent cross-references
# Verify db nodes correctly represent src/obj dirs of generated plans (including xref plans)
^%ydboctoocto("plandirs","$PWD/_ydboctoP*.m","$PWD/_ydboctoP*.o")=""
^%ydboctoocto("plandirs","$PWD/_ydboctoP*.m","$PWD/_ydboctoP*.o")=""
# Verify currently installed triggers

# Rerun 8 queries from TCF023.sql that use ABS and REPLACE functions
# Verify generated _ydbocto*.m and _ydbocto*.o plan files
_ydboctoP*.m
_ydboctoP*.o
_ydboctoP*.m
_ydboctoP*.o
_ydboctoP*.m
_ydboctoP*.o
_ydboctoP*.m
_ydboctoP*.o
_ydboctoP*.m
_ydboctoP*.o
_ydboctoP*.m
_ydboctoP*.o
_ydboctoP*.m
_ydboctoP*.o
_ydboctoP*.m
_ydboctoP*.o
# Verify how many queries created new plans
[ INFO] PATH:LINENUM DATE TIME: INFO_M_PLAN: Generating M file [$PWD/_ydboctoP*.m] (to execute SQL query)
[ INFO] PATH:LINENUM DATE TIME: INFO_M_PLAN: Generating M file [$PWD/_ydboctoP*.m] (to execute SQL query)
[ INFO] PATH:LINENUM DATE TIME: INFO_M_PLAN: Generating M file [$PWD/_ydboctoP*.m] (to execute SQL query)
[ INFO] PATH:LINENUM DATE TIME: INFO_M_PLAN: Generating M file [$PWD/_ydboctoP*.m] (to execute SQL query)
[ INFO] PATH:LINENUM DATE TIME: INFO_REUSE_M_PLAN: Using already generated M file [$PWD/_ydboctoP*.m] (to execute SQL query)
[ INFO] PATH:LINENUM DATE TIME: INFO_REUSE_M_PLAN: Using already generated M file [$PWD/_ydboctoP*.m] (to execute SQL query)
[ INFO] PATH:LINENUM DATE TIME: INFO_M_PLAN: Generating M file [$PWD/_ydboctoP*.m] (to execute SQL query)
[ INFO] PATH:LINENUM DATE TIME: INFO_M_PLAN: Generating M file [$PWD/_ydboctoP*.m] (to execute SQL query)
# Verify db nodes correctly represent tables and plans (including xref plans) that rely on them
^%ydboctoocto("tableplans","NAMES","$PWD/_ydboctoP*.m")=""
^%ydboctoocto("tableplans","NAMES","$PWD/_ydboctoP*.m")=""
^%ydboctoocto("tableplans","NAMES","$PWD/_ydboctoP*.m")=""
^%ydboctoocto("tableplans","NAMES","$PWD/_ydboctoP*.m")=""
^%ydboctoocto("tableplans","NAMES","$PWD/_ydboctoP*.m")=""
^%ydboctoocto("tableplans","NAMES","$PWD/_ydboctoP*.m")=""
^%ydboctoocto("tableplans","NAMES","$PWD/_ydboctoP*.m")=""
^%ydboctoocto("tableplans","NAMES","$PWD/_ydboctoP*.m")=""
^%ydboctoocto("tableplans","NAMES","$PWD/_ydboctoP*.m")=""
^%ydboctoocto("tableplans","NAMES","$PWD/_ydboctoP*.m")=""
^%ydboctoocto("tableplans","NAMES","$PWD/_ydboctoP*.m")=""
^%ydboctoocto("tableplans","NAMES","$PWD/_ydboctoP*.m")=""
^%ydboctoocto("tableplans","NAMES","$PWD/_ydboctoP*.m")=""
^%ydboctoocto("tableplans","NAMES","$PWD/_ydboctoP*.m")=""
# Verify db nodes correctly represent functions and plans that rely on them
^%ydboctoocto("functions","ABS","%ydboctoFXjpLNKLu1sElo0JiZVgdDG","plan_metadata","$PWD/_ydboctoP*.m")=""
^%ydboctoocto("functions","ABS","%ydboctoFXjpLNKLu1sElo0JiZVgdDG","plan_metadata","$PWD/_ydboctoP*.m")=""
^%ydboctoocto("functions","ABS","%ydboctoFXjpLNKLu1sElo0JiZVgdDG","plan_metadata","$PWD/_ydboctoP*.m")=""
^%ydboctoocto("functions","ABS","%ydboctoFXjpLNKLu1sElo0JiZVgdDG","plan_metadata","$PWD/_ydboctoP*.m")=""
^%ydboctoocto("functions","ABS","%ydboctoFXjpLNKLu1sElo0JiZVgdDG","plan_metadata","$PWD/_ydboctoP*.m")=""
^%ydboctoocto("functions","ABS","%ydboctoFXjpLNKLu1sElo0JiZVgdDG","plan_metadata","$PWD/_ydboctoP*.m")=""
^%ydboctoocto("functions","ABS","%ydboctoFXjpLNKLu1sElo0JiZVgdDG","plan_metadata","$PWD/_ydboctoP*.m")=""
^%ydboctoocto("functions","ABS","%ydboctoFXjpLNKLu1sElo0JiZVgdDG","plan_metadata","$PWD/_ydboctoP*.m")=""
^%ydboctoocto("functions","ABS","%ydboctoFXjpLNKLu1sElo0JiZVgdDG","plan_metadata","$PWD/_ydboctoP*.m")=""
^%ydboctoocto("functions","ABS","%ydboctoFXjpLNKLu1sElo0JiZVgdDG","plan_metadata","$PWD/_ydboctoP*.m")=""
^%ydboctoocto("functions","REPLACE","%ydboctoFrvGFWZceNJDlLJu4e6S5I1","plan_metadata","$PWD/_ydboctoP*.m")=""
^%ydboctoocto("functions","REPLACE","%ydboctoFrvGFWZceNJDlLJu4e6S5I1","plan_metadata","$PWD/_ydboctoP*.m")=""
^%ydboctoocto("functions","REPLACE","%ydboctoFrvGFWZceNJDlLJu4e6S5I1","plan_metadata","$PWD/_ydboctoP*.m")=""
^%ydboctoocto("functions","REPLACE","%ydboctoFrvGFWZceNJDlLJu4e6S5I1","plan_metadata","$PWD/_ydboctoP*.m")=""
^%ydboctoocto("functions","REPLACE","%ydboctoFrvGFWZceNJDlLJu4e6S5I1","plan_metadata","$PWD/_ydboctoP*.m")=""
^%ydboctoocto("functions","REPLACE","%ydboctoFrvGFWZceNJDlLJu4e6S5I1","plan_metadata","$PWD/_ydboctoP*.m")=""
# Verify db nodes for plans that are reusable (i.e. do not need to be regenerated)
^%ydboctoocto("plan_metadata","$PWD/_ydboctoP*.m","output_key")="3"
^%ydboctoocto("plan_metadata","$PWD/_ydboctoP*.m","output_key")="3"
^%ydboctoocto("plan_metadata","$PWD/_ydboctoP*.m","output_key")="3"
^%ydboctoocto("plan_metadata","$PWD/_ydboctoP*.m","output_key")="3"
^%ydboctoocto("plan_metadata","$PWD/_ydboctoP*.m","output_key")="3"
^%ydboctoocto("plan_metadata","$PWD/_ydboctoP*.m","output_key")="3"
^%ydboctoocto("plan_metadata","$PWD/_ydboctoP*.m","output_key")="3"
^%ydboctoocto("plan_metadata","$PWD/_ydboctoP*.m","output_key")="3"
# Verify db nodes correctly represent cross-references
# Verify db nodes correctly represent src/obj dirs of generated plans (including xref plans)
^%ydboctoocto("plandirs","$PWD/_ydboctoP*.m","$PWD/_ydboctoP*.o")=""
^%ydboctoocto("plandirs","$PWD/_ydboctoP*.m","$PWD/_ydboctoP*.o")=""
^%ydboctoocto("plandirs","$PWD/_ydboctoP*.m","$PWD/_ydboctoP*.o")=""
^%ydboctoocto("plandirs","$PWD/_ydboctoP*.m","$PWD/_ydboctoP*.o")=""
^%ydboctoocto("plandirs","$PWD/_ydboctoP*.m","$PWD/_ydboctoP*.o")=""
^%ydboctoocto("plandirs","$PWD/_ydboctoP*.m","$PWD/_ydboctoP*.o")=""
^%ydboctoocto("plandirs","$PWD/_ydboctoP*.m","$PWD/_ydboctoP*.o")=""
^%ydboctoocto("plandirs","$PWD/_ydboctoP*.m","$PWD/_ydboctoP*.o")=""
# Verify currently installed triggers

