
SELECT case when id=1 then 'id_is_1' when id=2 then 2 else NULL end as caseid FROM names;
[ERROR]: ERR_CASE_BRANCH_TYPE_MISMATCH: CASE branch type mismatch: left VARCHAR, right INTEGER
LINE 1: ...CT case when id=1 then 'id_is_1' when id=2 then 2 else NULL end...
                                          ^
LINE 1: ... then 'id_is_1' when id=2 then 2 else NULL end as caseid FROM n...
                                          ^
