
SELECT case when id=1 then 'id_is_1' when id=2 then case when id=1 then 1 else 2 end else NULL end as caseid FROM names;
[ERROR]: ERR_CASE_BRANCH_TYPE_MISMATCH: CASE branch type mismatch: left VARCHAR, right INTEGER
LINE 1: ...CT case when id=1 then 'id_is_1' when id=2 then case when id=1 ...
                                          ^
LINE 1: ... when id=2 then case when id=1 then 1 else 2 end else NULL end a...
                           ^^^^^^^^^^^^^^^^^^^^^^^^^^^^^^^^
