[ INFO] PATH:LINENUM DATE TIME: INFO_RECORDING_ENV_VARS: # Recording pertinent ydb_* env var values at process startup
[ INFO] PATH:LINENUM DATE TIME: INFO_PARSING_DONE: Parsing done for SQL command [drop table if exists t1;]
[ INFO] PATH:LINENUM DATE TIME: INFO_CURSOR: Generating SQL for CURSOR_NUM
DROP TABLE
[ INFO] PATH:LINENUM DATE TIME: INFO_PARSING_DONE: Parsing done for SQL command [drop table if exists t1;]
[ INFO] PATH:LINENUM DATE TIME: INFO_CURSOR: Generating SQL for CURSOR_NUM
[ INFO] PATH:LINENUM DATE TIME: INFO_TABLE_DOES_NOT_EXIST: Table 'T1' does not exist, skipping
DROP TABLE
[ INFO] PATH:LINENUM DATE TIME: INFO_PARSING_DONE: Parsing done for SQL command []
Exit Status: 0
