# Test that READONLY table does not do KILL of underlying GVN storing the table data
# And that READWRITE table does KILL of underlying GVN storing the table data
-----------------------------------------------------------------------------
# CREATE TABLE NAMES with READONLY tabletype
# Populate ^names with data for NAMES table
# Verify NAMES table got created with READONLY or READWRITE tabletype
CREATE TABLE `NAMES` (`ID` INTEGER PRIMARY KEY, `FIRSTNAME` VARCHAR(30) PIECE 1, `LASTNAME` VARCHAR(30) PIECE 2) GLOBAL "^names(keys(""id""))" DELIM "|" READONLY;
# DROP TABLE names

-- TDT05 : OCTO502 : DROP TABLE on READWRITE table does a KILL of the underlying GVN storing the table data

DROP TABLE names;
DROP TABLE nameswithages;

DROP TABLE
DROP TABLE
# Verify ^names still exists (READONLY) or not (READWRITE)
$DATA(^names) = 10
# CREATE TABLE NAMES with READWRITE tabletype
# Populate ^names with data for NAMES table
# Verify NAMES table got created with READONLY or READWRITE tabletype
CREATE TABLE `NAMES` (`ID` INTEGER PRIMARY KEY, `FIRSTNAME` VARCHAR(30) PIECE 1, `LASTNAME` VARCHAR(30) PIECE 2) GLOBAL "^names(keys(""id""))" DELIM "|" READWRITE;
# DROP TABLE names

-- TDT05 : OCTO502 : DROP TABLE on READWRITE table does a KILL of the underlying GVN storing the table data

DROP TABLE names;
DROP TABLE nameswithages;

DROP TABLE
DROP TABLE

-- TDT05 : OCTO502 : DROP TABLE on READWRITE table does a KILL of the underlying GVN storing the table data

DROP TABLE names;
DROP TABLE nameswithages;

DROP TABLE
DROP TABLE
# Verify ^names still exists (READONLY) or not (READWRITE)
$DATA(^names) = 0
