
-- TERR034 : OCTO772 : Test of ERR_READONLY_DISALLOWED and ERR_READONLY_AND_READWRITE_DISALLOWED errors

-- Test of ERR_READONLY_DISALLOWED error
-- Test of CHECK constraint with READONLY explicitly specified
CREATE TABLE abcd (id INTEGER CHECK (id < 10)) READONLY;

-- Test of ERR_READONLY_AND_READWRITE_DISALLOWED error
-- Test of CHECK constraint with READONLY implicitly assumed (due to the column-level EXTRACT keyword)
CREATE TABLE abcd (id INTEGER PRIMARY KEY CHECK (id < 10), datetime INTEGER EXTRACT "$ZHOROLOG");
CREATE TABLE abcd (id INTEGER PRIMARY KEY, datetime INTEGER EXTRACT "$ZHOROLOG" CHECK (datetime < id));

[ERROR]: ERR_FEATURE_NOT_IMPLEMENTED: Feature not implemented: Constraints
[ERROR]: ERR_FEATURE_NOT_IMPLEMENTED: Feature not implemented: Constraints
[ERROR]: ERR_FEATURE_NOT_IMPLEMENTED: Feature not implemented: Constraints
