
-- TERR026 : OCTO345 : Issue error for if number of function arguments exceeds M limit

-- Too many arguments in function declaration
CREATE FUNCTION TOOMANYARGS(INTEGER, VARCHAR, INTEGER, VARCHAR, INTEGER, VARCHAR, INTEGER, VARCHAR, INTEGER, VARCHAR, INTEGER, VARCHAR, INTEGER, VARCHAR, INTEGER, VARCHAR, INTEGER, VARCHAR, INTEGER, VARCHAR, INTEGER, VARCHAR, INTEGER, VARCHAR, INTEGER, VARCHAR, INTEGER, VARCHAR, INTEGER, VARCHAR, INTEGER, VARCHAR, INTEGER) RETURNS VARCHAR AS $$TOOMANYARGS;
SELECT * FROM names where firstname = TOOMANYARGS(1, "2", 3, "2", 5, "2", 7, "2", 9, "2", 11, "2", 13, "2", 15, "2", 17, "2", 19, "2", 21, "2", 23, "2", 25, "2", 27, "2", 29, "2", 31, "2", 33);

-- Too many arguments in function call
SELECT * FROM names where id = ABS(1, 2, 3, 4, 5, 6, 7, 8, 9, 10, 11, 12, 13, 14, 15, 16, 17, 18, 19, 20, 21, 22, 23, 24, 25, 26, 27, 28, 29, 30, 31, 32, 33);

[ERROR]: ERR_TOO_MANY_FUNCTION_ARGUMENTS: Too many arguments passed for function TOOMANYARGS (max: 32)
[ERROR]: ERR_TOO_MANY_FUNCTION_ARGUMENTS: Too many arguments passed for function TOOMANYARGS (max: 32)
[ERROR]: ERR_TOO_MANY_FUNCTION_ARGUMENTS: Too many arguments passed for function ABS (max: 32)
