
-- TOJ07 : OCTO312 : Use WHERE clause to optimize FULL JOIN (just like INNER JOIN)
CREATE FUNCTION CURR_TIMESTAMP(VARCHAR) RETURNS NUMERIC AS $$^TIMESTAMP;

SELECT A.ORDER1_ID, A.PATIENT_ID, A.OBJECT_OF_ORDER
FROM ORDER1 A
FULL JOIN PATIENT E ON (A.PATIENT_ID=E.PATIENT_ID)
FULL JOIN ORDER_STATUS C ON (A.STATUS=C.ORDER_STATUS_ID)
FULL JOIN ORDER_ORDER_ACTIONS B ON ( A.ORDER1_ID = B.ORDER1_ID AND A.CURRENT_ACTION=B.ORDER_ORDER_ACTIONS_ID)
FULL JOIN NEW_PERSON D ON (B.SIGNED_BY = D.NEW_PERSON_ID)
FULL JOIN DISPLAY_GROUP F ON (A.TO=F.DISPLAY_GROUP_ID)
WHERE
(
   A.PATIENT_ID>0
   and A.CURRENT_ACTION>0
   AND A.STATUS in (5,6,15)
   AND ( A.STOP_DATE>=CURR_TIMESTAMP("V")::NUMERIC OR A.STOP_DATE IS NULL )
   AND E.NAME NOT LIKE "ZZ%"
   AND E.CURRENT_MOVEMENT>0
);

CREATE FUNCTION
ORDER1_ID|PATIENT_ID|OBJECT_OF_ORDER
(0 rows)
# Verify cross reference plans did get generated
_ydboctoX*.m
# Verify key fixing optimization happened by looking at the FOR loops in the generated M code
;; ---------------------------------------------------------

octoPlan0(cursorId,wrapInTp)
    DO:'$GET(^%ydbAIMOctoCache("ORDER1","STATUS","completed?")) xrefPlan^%ydboctoXl1ZF8QChmrFXG5Ip2jah7D(cursorId)
    NEW %ydboctop,%ydboctoexpr
    TSTART:wrapInTp ():(serial)
    DO octoPlan1(cursorId)
    DO octoPlan2(cursorId)
--
    QUIT

octoPlan1(cursorId)
--
    . SET %ydboctoexpr=$GET(%ydboctocursor(cursorId,"parameters",5))
    SET %ydboctoin1(%ydboctoexpr)=""
    SET %ydboctoin1="" FOR  DO:$DATA(%ydboctoin1(%ydboctoin1))  SET %ydboctoin1=$ORDER(%ydboctoin1(%ydboctoin1)) QUIT:""=%ydboctoin1
--
    . SET %ydboctocursor(cursorId,"keys",1,"ORDER1","STATUS")=%ydboctoexpr IF '$ZYISSQLNULL(%ydboctocursor(cursorId,"keys",1,"ORDER1","STATUS")) IF $DATA(^%ydbAIMDkhryjZbAGBxsFRR7PrVfA4(3,%ydboctocursor(cursorId,"keys",1,"ORDER1","STATUS"))) DO
    . . SET %ydboctocursor(cursorId,"keys",1,"ORDER1","ORDER1_ID")=0
    . . FOR  SET %ydboctocursor(cursorId,"keys",1,"ORDER1","ORDER1_ID")=$ORDER(^%ydbAIMDkhryjZbAGBxsFRR7PrVfA4(3,%ydboctocursor(cursorId,"keys",1,"ORDER1","STATUS"),%ydboctocursor(cursorId,"keys",1,"ORDER1","ORDER1_ID"))) QUIT:('(%ydboctocursor(cursorId,"keys",1,"ORDER1","ORDER1_ID"))!(%ydboctocursor(cursorId,"keys",1,"ORDER1","ORDER1_ID")=""))  DO
--
    ZKILL %ydboctocursor(cursorId,"keys",1,"ORDER1","STATUS")
    SET %ydboctocursor(cursorId,"keys",2,"PATIENT","PATIENT_ID")=0
    FOR  SET %ydboctocursor(cursorId,"keys",2,"PATIENT","PATIENT_ID")=$ORDER(^DPT(%ydboctocursor(cursorId,"keys",2,"PATIENT","PATIENT_ID"))) QUIT:('(%ydboctocursor(cursorId,"keys",2,"PATIENT","PATIENT_ID"))!(%ydboctocursor(cursorId,"keys",2,"PATIENT","PATIENT_ID")=""))  DO
--
    ZKILL %ydboctocursor(cursorId,"keys",2,"PATIENT","PATIENT_ID")
    SET %ydboctocursor(cursorId,"keys",3,"ORDER_STATUS","ORDER_STATUS_ID")=0
    FOR  SET %ydboctocursor(cursorId,"keys",3,"ORDER_STATUS","ORDER_STATUS_ID")=$ORDER(^ORD(100.01,%ydboctocursor(cursorId,"keys",3,"ORDER_STATUS","ORDER_STATUS_ID"))) QUIT:('(%ydboctocursor(cursorId,"keys",3,"ORDER_STATUS","ORDER_STATUS_ID"))!(%ydboctocursor(cursorId,"keys",3,"ORDER_STATUS","ORDER_STATUS_ID")=""))  DO
--
    ZKILL %ydboctocursor(cursorId,"keys",3,"ORDER_STATUS","ORDER_STATUS_ID")
    SET %ydboctocursor(cursorId,"keys",4,"ORDER_ORDER_ACTIONS","ORDER1_ID")=0
    FOR  SET %ydboctocursor(cursorId,"keys",4,"ORDER_ORDER_ACTIONS","ORDER1_ID")=$ORDER(^OR(100,%ydboctocursor(cursorId,"keys",4,"ORDER_ORDER_ACTIONS","ORDER1_ID"))) QUIT:('(%ydboctocursor(cursorId,"keys",4,"ORDER_ORDER_ACTIONS","ORDER1_ID"))!(%ydboctocursor(cursorId,"keys",4,"ORDER_ORDER_ACTIONS","ORDER1_ID")=""))  DO
    . SET %ydboctocursor(cursorId,"keys",4,"ORDER_ORDER_ACTIONS","ORDER_ORDER_ACTIONS_ID")=0
    . FOR  SET %ydboctocursor(cursorId,"keys",4,"ORDER_ORDER_ACTIONS","ORDER_ORDER_ACTIONS_ID")=$ORDER(^OR(100,%ydboctocursor(cursorId,"keys",4,"ORDER_ORDER_ACTIONS","ORDER1_ID"),8,%ydboctocursor(cursorId,"keys",4,"ORDER_ORDER_ACTIONS","ORDER_ORDER_ACTIONS_ID"))) QUIT:('(%ydboctocursor(cursorId,"keys",4,"ORDER_ORDER_ACTIONS","ORDER_ORDER_ACTIONS_ID"))!(%ydboctocursor(cursorId,"keys",4,"ORDER_ORDER_ACTIONS","ORDER_ORDER_ACTIONS_ID")=""))  DO
--
    ZKILL %ydboctocursor(cursorId,"keys",4,"ORDER_ORDER_ACTIONS","ORDER1_ID")
    SET %ydboctocursor(cursorId,"keys",5,"NEW_PERSON","NEW_PERSON_ID")=0
    FOR  SET %ydboctocursor(cursorId,"keys",5,"NEW_PERSON","NEW_PERSON_ID")=$ORDER(^VA(200,%ydboctocursor(cursorId,"keys",5,"NEW_PERSON","NEW_PERSON_ID"))) QUIT:('(%ydboctocursor(cursorId,"keys",5,"NEW_PERSON","NEW_PERSON_ID"))!(%ydboctocursor(cursorId,"keys",5,"NEW_PERSON","NEW_PERSON_ID")=""))  DO
--
    ZKILL %ydboctocursor(cursorId,"keys",5,"NEW_PERSON","NEW_PERSON_ID")
    SET %ydboctocursor(cursorId,"keys",6,"DISPLAY_GROUP","DISPLAY_GROUP_ID")=0
    FOR  SET %ydboctocursor(cursorId,"keys",6,"DISPLAY_GROUP","DISPLAY_GROUP_ID")=$ORDER(^ORD(100.98,%ydboctocursor(cursorId,"keys",6,"DISPLAY_GROUP","DISPLAY_GROUP_ID"))) QUIT:('(%ydboctocursor(cursorId,"keys",6,"DISPLAY_GROUP","DISPLAY_GROUP_ID"))!(%ydboctocursor(cursorId,"keys",6,"DISPLAY_GROUP","DISPLAY_GROUP_ID")=""))  DO
--
    QUIT

octoPlan2(cursorId)
--
    . SET %ydboctoexpr=$GET(%ydboctocursor(cursorId,"parameters",5))
    SET %ydboctoin1(%ydboctoexpr)=""
    SET %ydboctoin1="" FOR  DO:$DATA(%ydboctoin1(%ydboctoin1))  SET %ydboctoin1=$ORDER(%ydboctoin1(%ydboctoin1)) QUIT:""=%ydboctoin1
--
    . SET %ydboctocursor(cursorId,"keys",1,"ORDER1","STATUS")=%ydboctoexpr IF '$ZYISSQLNULL(%ydboctocursor(cursorId,"keys",1,"ORDER1","STATUS")) IF $DATA(^%ydbAIMDkhryjZbAGBxsFRR7PrVfA4(3,%ydboctocursor(cursorId,"keys",1,"ORDER1","STATUS"))) DO
    . . SET %ydboctocursor(cursorId,"keys",1,"ORDER1","ORDER1_ID")=0
    . . FOR  SET %ydboctocursor(cursorId,"keys",1,"ORDER1","ORDER1_ID")=$ORDER(^%ydbAIMDkhryjZbAGBxsFRR7PrVfA4(3,%ydboctocursor(cursorId,"keys",1,"ORDER1","STATUS"),%ydboctocursor(cursorId,"keys",1,"ORDER1","ORDER1_ID"))) QUIT:('(%ydboctocursor(cursorId,"keys",1,"ORDER1","ORDER1_ID"))!(%ydboctocursor(cursorId,"keys",1,"ORDER1","ORDER1_ID")=""))  DO
--
    ZKILL %ydboctocursor(cursorId,"keys",1,"ORDER1","STATUS")
    SET %ydboctocursor(cursorId,"keys",2,"PATIENT","PATIENT_ID")=0
    FOR  SET %ydboctocursor(cursorId,"keys",2,"PATIENT","PATIENT_ID")=$ORDER(^DPT(%ydboctocursor(cursorId,"keys",2,"PATIENT","PATIENT_ID"))) QUIT:('(%ydboctocursor(cursorId,"keys",2,"PATIENT","PATIENT_ID"))!(%ydboctocursor(cursorId,"keys",2,"PATIENT","PATIENT_ID")=""))  DO
--
    ZKILL %ydboctocursor(cursorId,"keys",2,"PATIENT","PATIENT_ID")
    SET %ydboctocursor(cursorId,"keys",3,"ORDER_STATUS","ORDER_STATUS_ID")=0
    FOR  SET %ydboctocursor(cursorId,"keys",3,"ORDER_STATUS","ORDER_STATUS_ID")=$ORDER(^ORD(100.01,%ydboctocursor(cursorId,"keys",3,"ORDER_STATUS","ORDER_STATUS_ID"))) QUIT:('(%ydboctocursor(cursorId,"keys",3,"ORDER_STATUS","ORDER_STATUS_ID"))!(%ydboctocursor(cursorId,"keys",3,"ORDER_STATUS","ORDER_STATUS_ID")=""))  DO
--
    ZKILL %ydboctocursor(cursorId,"keys",3,"ORDER_STATUS","ORDER_STATUS_ID")
    SET %ydboctocursor(cursorId,"keys",4,"ORDER_ORDER_ACTIONS","ORDER1_ID")=0
    FOR  SET %ydboctocursor(cursorId,"keys",4,"ORDER_ORDER_ACTIONS","ORDER1_ID")=$ORDER(^OR(100,%ydboctocursor(cursorId,"keys",4,"ORDER_ORDER_ACTIONS","ORDER1_ID"))) QUIT:('(%ydboctocursor(cursorId,"keys",4,"ORDER_ORDER_ACTIONS","ORDER1_ID"))!(%ydboctocursor(cursorId,"keys",4,"ORDER_ORDER_ACTIONS","ORDER1_ID")=""))  DO
    . SET %ydboctocursor(cursorId,"keys",4,"ORDER_ORDER_ACTIONS","ORDER_ORDER_ACTIONS_ID")=0
    . FOR  SET %ydboctocursor(cursorId,"keys",4,"ORDER_ORDER_ACTIONS","ORDER_ORDER_ACTIONS_ID")=$ORDER(^OR(100,%ydboctocursor(cursorId,"keys",4,"ORDER_ORDER_ACTIONS","ORDER1_ID"),8,%ydboctocursor(cursorId,"keys",4,"ORDER_ORDER_ACTIONS","ORDER_ORDER_ACTIONS_ID"))) QUIT:('(%ydboctocursor(cursorId,"keys",4,"ORDER_ORDER_ACTIONS","ORDER_ORDER_ACTIONS_ID"))!(%ydboctocursor(cursorId,"keys",4,"ORDER_ORDER_ACTIONS","ORDER_ORDER_ACTIONS_ID")=""))  DO
--
    ZKILL %ydboctocursor(cursorId,"keys",4,"ORDER_ORDER_ACTIONS","ORDER1_ID")
    SET %ydboctocursor(cursorId,"keys",5,"NEW_PERSON","NEW_PERSON_ID")=0
    FOR  SET %ydboctocursor(cursorId,"keys",5,"NEW_PERSON","NEW_PERSON_ID")=$ORDER(^VA(200,%ydboctocursor(cursorId,"keys",5,"NEW_PERSON","NEW_PERSON_ID"))) QUIT:('(%ydboctocursor(cursorId,"keys",5,"NEW_PERSON","NEW_PERSON_ID"))!(%ydboctocursor(cursorId,"keys",5,"NEW_PERSON","NEW_PERSON_ID")=""))  DO
--
    ZKILL %ydboctocursor(cursorId,"keys",5,"NEW_PERSON","NEW_PERSON_ID")
    SET %ydboctocursor(cursorId,"keys",6,"DISPLAY_GROUP","DISPLAY_GROUP_ID")=0
    FOR  SET %ydboctocursor(cursorId,"keys",6,"DISPLAY_GROUP","DISPLAY_GROUP_ID")=$ORDER(^ORD(100.98,%ydboctocursor(cursorId,"keys",6,"DISPLAY_GROUP","DISPLAY_GROUP_ID"))) QUIT:('(%ydboctocursor(cursorId,"keys",6,"DISPLAY_GROUP","DISPLAY_GROUP_ID"))!(%ydboctocursor(cursorId,"keys",6,"DISPLAY_GROUP","DISPLAY_GROUP_ID")=""))  DO
