DROP TABLE
CREATE TABLE
INSERT 0 6
 id | firstname | lastname 
----+-----------+----------
  0 | Zero      | Cool
  1 | Acid      | Burn
  2 | Cereal    | Killer
  3 | Lord      | Nikon
  4 | Joey      | 
  5 | Zero      | Cool
(6 rows)

UPDATE 3
 id | firstname | lastname 
----+-----------+----------
  0 | Zero      | Cool
  1 | Burn      | Acid
  2 | Killer    | Cereal
  3 | Nikon     | Lord
  4 | Joey      | 
  5 | Zero      | Cool
(6 rows)

DELETE 5
 id | firstname | lastname 
----+-----------+----------
  4 | Joey      | 
(1 row)

