select a,b from (select 1 as a, 2 as b);
select a,c from (select 1 as a, 2 as b);
select c,b from (select 1 as a, 2 as b);
A|B
1|2
(1 row)
[ERROR]: ERR_UNKNOWN_COLUMN_NAME: Unknown column: C
LINE 1: select a,c from (select 1 as a, 2 as b);
                 ^
[ERROR]: ERR_UNKNOWN_COLUMN_NAME: Unknown column: C
LINE 1: select c,b from (select 1 as a, 2 as b);
               ^
