[ERROR]: ERR_MISSING_FROM_ENTRY: Missing FROM-clause entry for table : N1
LINE 5:             WHERE n1.id = n2.id
                          ^^^^^
[ERROR]: ERR_MISSING_FROM_ENTRY: Missing FROM-clause entry for table : N1
LINE 11:             WHERE n1.id = n3.id
                           ^^^^^
