
SELECT version();
[ INFO] PATH:LINENUM DATE TIME: INFO_RECORDING_ENV_VARS: # Recording pertinent ydb_* env var values at process startup
[ INFO] PATH:LINENUM DATE TIME: INFO_PARSING_DONE: Parsing done for SQL command [SELECT version();]
[ INFO] PATH:LINENUM DATE TIME: INFO_CURSOR: Generating SQL for CURSOR_NUM
[ INFO] PATH:LINENUM DATE TIME: INFO_M_PLAN: Generating M file [$PWD/_ydboctoP*.m] (to execute SQL query)
[DEBUG] PATH:LINENUM DATE TIME: INFO_CURPLAN: LOGICAL_PLAN BEFORE optimize_logical_plan() follows 
LP_SELECT_QUERY: 
  LP_PROJECT: 
    LP_COLUMN_LIST: 
      LP_WHERE: 
        LP_FUNCTION_CALL: 
          LP_VALUE: 'VERSION'
          LP_COLUMN_LIST: 
            LP_VALUE: '%ydboctoFvUsCzPUyvXXbs0y5Mx1mA5'
            LP_VALUE: '$$VERSION^%ydboctosqlfunctions'
            LP_VALUE: 'VARCHAR'
        LP_COLUMN_LIST_ALIAS: 
        - type: STRING_LITERAL
        - alias: VERSION
    LP_SELECT: 
      LP_TABLE_JOIN: 
        LP_TABLE: OCTOONEROWTABLE
      LP_CRITERIA: 
        LP_KEYS: 
        LP_SELECT_OPTIONS: 
          LP_WHERE: 
          LP_SELECT_MORE_OPTIONS: 
            LP_KEYWORDS: 
  LP_OUTPUT: 
    LP_KEY: 
    - table_name: 
    - column_name: 
    - unique_id: 3
    - method: LP_KEY_ADVANCE
    - xref_key: false
    - uses_xref_key: false

[DEBUG] PATH:LINENUM DATE TIME: INFO_CURPLAN: LOGICAL_PLAN AFTER optimize_logical_plan() follows 
LP_SELECT_QUERY: 
  LP_PROJECT: 
    LP_COLUMN_LIST: 
      LP_WHERE: 
        LP_FUNCTION_CALL: 
          LP_VALUE: 'VERSION'
          LP_COLUMN_LIST: 
            LP_VALUE: '%ydboctoFvUsCzPUyvXXbs0y5Mx1mA5'
            LP_VALUE: '$$VERSION^%ydboctosqlfunctions'
            LP_VALUE: 'VARCHAR'
        LP_COLUMN_LIST_ALIAS: 
        - type: STRING_LITERAL
        - alias: VERSION
    LP_SELECT: 
      LP_TABLE_JOIN: 
        LP_TABLE: OCTOONEROWTABLE
      LP_CRITERIA: 
        LP_KEYS: 
          LP_KEY: 
          - table_name: OCTOONEROWTABLE
          - column_name: ID
          - unique_id: 1
          - method: LP_KEY_ADVANCE
          - xref_key: false
          - uses_xref_key: false
        LP_SELECT_OPTIONS: 
          LP_WHERE: 
          LP_SELECT_MORE_OPTIONS: 
            LP_KEYWORDS: 
  LP_OUTPUT: 
    LP_KEY: 
    - table_name: 
    - column_name: 
    - unique_id: 3
    - method: LP_KEY_ADVANCE
    - xref_key: false
    - uses_xref_key: false

[ INFO] PATH:LINENUM DATE TIME: INFO_ENTERING_FUNCTION: Entering print_temporary_table
VERSION
PostgreSQL 9.6.5 on x86_64-pc-linux-gnu, compiled by gcc (GCC) 7.1.1 20170630, 64-bit
(1 row)
[ INFO] PATH:LINENUM DATE TIME: INFO_PARSING_DONE: Parsing done for SQL command []
