
-- TSQ011 : function lookup query succeeds without error

select proname,typname from pg_catalog.pg_proc inner join pg_catalog.pg_type on pg_catalog.pg_proc.prorettype = pg_catalog.pg_type.oid;
PRONAME|TYPNAME
ABS|numeric
ABS|numeric
CONCAT|varchar
CONCAT|varchar
ROUND|numeric
ROUND|numeric
TRUNC|numeric
TRUNC|numeric
TRUNC|numeric
TRUNC|numeric
TRUNCATE|numeric
TRUNCATE|numeric
TRUNCATE|numeric
TRUNCATE|numeric
NOW|varchar
DAY|varchar
LOCALTIME|varchar
LOCALTIMESTAMP|varchar
CURRENT_TIMESTAMP|varchar
CURRENT_TIME|varchar
DATE_FORMAT|varchar
DAYOFMONTH|varchar
LPAD|varchar
LPAD|varchar
REPLACE|varchar
ROW_NUMBER|int4
SET_CONFIG|varchar
VERSION|varchar
PG_CATALOG.PG_TABLE_IS_VISIBLE|bool
PG_CATALOG.PG_GET_USERBYID|varchar
CURRENT_SCHEMA|varchar
CURRENT_DATABASE|varchar
CURRENT_CATALOG|varchar
CURRENT_ROLE|varchar
CURRENT_USER|varchar
SESSION_USER|varchar
USER|varchar
PG_CATALOG.CURRENT_SCHEMAS|varchar
PG_CATALOG.OBJ_DESCRIPTION|varchar
PG_CATALOG.PG_BACKEND_PID|varchar
PG_CATALOG.PG_GET_EXPR|varchar
PG_ENCODING_TO_CHAR|varchar
PG_IS_IN_RECOVERY|bool
PG_IS_XLOG_REPLAY_PAUSED|bool
HAS_DATABASE_PRIVILEGE|bool
HAS_DATABASE_PRIVILEGE|bool
PG_TABLE_IS_VISIBLE|bool
PG_GET_USERBYID|varchar
CURRENT_SCHEMAS|varchar
OBJ_DESCRIPTION|varchar
PG_BACKEND_PID|varchar
PG_GET_EXPR|varchar
(52 rows)
