
-- TVD0004 : Test Realistic Sample Query 2

SELECT A.ORDER1_ID,
E.NAME,
A.CURRENT_ACTION,
F.DISPLAY_GROUP_ID,
F.NAME as Order_Category,
G.ORDER_ORDER_ACT_ORDER_TEXT_ID as ORDER_TEXT_ID,
G.ORDER_TEXT
FROM ORDER1 A
LEFT JOIN PATIENT E ON NUMBER(A.OBJECT_OF_ORDER)=E.PATIENT_ID
LEFT JOIN ORDER_STATUS C ON (A.STATUS=C.ORDER_STATUS_ID)
LEFT JOIN ORDER_ORDER_ACTIONS B ON
(
   A.ORDER1_ID = B.ORDER1_ID
   AND A.CURRENT_ACTION=B.ORDER_ORDER_ACTIONS_ID
)
LEFT join ORDER_ORDER_ACT_ORDER_TEXT G on (A.ORDER1_ID= G.ORDER1_ID and B.ORDER_ORDER_ACTIONS_ID=G.ORDER_ORDER_ACTIONS_ID)
LEFT JOIN NEW_PERSON D ON (B.SIGNED_BY = D.NEW_PERSON_ID)
LEFT JOIN DISPLAY_GROUP F ON (A.TO=F.DISPLAY_GROUP_ID)
WHERE
   A.CURRENT_ACTION is not null
   AND A.STATUS in (3,4,5,6,8,9,11,15)
   AND (A.STOP_DATE>=CURRTIMESTAMP("V") OR A.STOP_DATE IS NULL)
   AND (A.OBJECT_OF_ORDER is not null and E.CURRENT_MOVEMENT is not null AND E.NAME NOT LIKE "ZZ%")
   AND C.NAME="ACTIVE"
order by e.patient_id,a.order1_id,G.ORDER_ORDER_ACT_ORDER_TEXT_ID

ORDER1_ID|NAME|CURRENT_ACTION|DISPLAY_GROUP_ID|ORDER_CATEGORY|ORDER_TEXT_ID|ORDER_TEXT
14375|EIGHT,PATIENT|1|6|CHEMISTRY|1|PROTIME BLOOD   PLASMA SP
15820|EIGHT,PATIENT|1|6|CHEMISTRY|1|INR BLOOD   PLASMA SP
15821|EIGHT,PATIENT|1|6|CHEMISTRY|1|PROTIME BLOOD   PLASMA SP
15822|EIGHT,PATIENT|1|6|CHEMISTRY|1|HEMOGLOBIN A1C SERUM SP
17105|EIGHT,PATIENT|1|6|CHEMISTRY|1|GLUCOSE BLOOD   SERUM SP
18068|EIGHT,PATIENT|1|48|NON-VA MEDICATIONS|1|ASPIRIN TAB,EC  81MG
18068|EIGHT,PATIENT|1|48|NON-VA MEDICATIONS|2| TAKE ONE TABLET BY MOUTH EVERY MORNING  Non-VA medication recommended by VA provider.  
38029|EIGHT,PATIENT|1|18|DIET ORDERS|1|REGULAR Diet
38030|EIGHT,PATIENT|1|48|NON-VA MEDICATIONS|1|ACETAMINOPHEN TAB  325MG
38030|EIGHT,PATIENT|1|48|NON-VA MEDICATIONS|2| TAKE ONE TABLET BY MOUTH Q6H PRN
38031|EIGHT,PATIENT|1|48|NON-VA MEDICATIONS|1|ACETAZOLAMIDE TAB  125MG
38031|EIGHT,PATIENT|1|48|NON-VA MEDICATIONS|2| TAKE ONE TABLET BY MOUTH 3XW
38032|EIGHT,PATIENT|1|48|NON-VA MEDICATIONS|1|ALBUTEROL TAB  2MG
38032|EIGHT,PATIENT|1|48|NON-VA MEDICATIONS|2| TAKE ONE TABLET BY MOUTH 3ID
38033|EIGHT,PATIENT|1|48|NON-VA MEDICATIONS|1|ASCORBIC ACID TAB  250MG
38033|EIGHT,PATIENT|1|48|NON-VA MEDICATIONS|2| TAKE ONE TABLET BY MOUTH 3ID
38034|EIGHT,PATIENT|1|48|NON-VA MEDICATIONS|1|CANDESARTAN TAB  16MG
38034|EIGHT,PATIENT|1|48|NON-VA MEDICATIONS|2| TAKE ONE TABLET BY MOUTH 3XW
38035|EIGHT,PATIENT|1|48|NON-VA MEDICATIONS|1|CALENDULA CAP/TAB
38035|EIGHT,PATIENT|1|48|NON-VA MEDICATIONS|2|  1 CAP/TAB MOUTH 3ID
38316|EIGHT,PATIENT|1|9|GENERAL RADIOLOGY|1|Barium Swallow (Esophagram)
17702|ONEHUNDRED,PATIENT|1|48|NON-VA MEDICATIONS|1|ASPIRIN TAB,EC  81MG
17702|ONEHUNDRED,PATIENT|1|48|NON-VA MEDICATIONS|2| TAKE ONE TABLET BY MOUTH EVERY MORNING  Non-VA medication recommended by VA provider.  
33247|ONEHUNDRED,PATIENT|1|9|GENERAL RADIOLOGY|1|CHEST 2 VIEWS PA&LAT
33592|BCMA,EIGHT|1|48|NON-VA MEDICATIONS|1|GINKGO TAB  60MG
33592|BCMA,EIGHT|1|48|NON-VA MEDICATIONS|2| TAKE ONE TABLET BY MOUTH EVERY 12 HOURS Jan 01, 2014
33595|BCMA,EIGHT|1|48|NON-VA MEDICATIONS|1|CHROMIUM PICOLINATE CAP,ORAL  200MCG
33595|BCMA,EIGHT|1|48|NON-VA MEDICATIONS|2| TAKE 1 CAPSULE BY MOUTH EVERY DAY Jan 01, 2014
33596|BCMA,EIGHT|1|48|NON-VA MEDICATIONS|1|ACETAMINOPHEN TAB  325MG
33596|BCMA,EIGHT|1|48|NON-VA MEDICATIONS|2| TAKE ONE TABLET BY MOUTH EVERY 4 HOURS AS NEEDED Jan 01, 2014
33602|BCMA,EIGHT|1|18|DIET ORDERS|1|CLEAR LIQUID Diet
35125|BCMA,EIGHT|1|47|PRECAUTIONS|1|RESPIRATORY Isolation Procedures
33962|BCMA,EIGHTEEN-PATIENT|1|13|NURSING|1|Incentive Spirometer
33962|BCMA,EIGHTEEN-PATIENT|1|13|NURSING|2| Q2H
33965|BCMA,EIGHTEEN-PATIENT|1|6|CHEMISTRY|1|CHEM 7 BLOOD   SERUM LC ONCE
39061|BCMA,TWENTYSIX-PATIENT|1|19|TUBEFEEDINGS|1|Tubefeeding: TRAUMACAL 1/2 strength 2000 KCAL/QD Special
39062|BCMA,TWENTYSIX-PATIENT|1|47|PRECAUTIONS|1|RESPIRATORY Isolation Procedures Instructions
14302|TWOHUNDREDSIXTEEN,PATIENT|1|13|NURSING|1|Cleanse wound with betadine and cover with 4X4s
13704|TWOHUNDREDFORTYNINE,PATIENT|1|18|DIET ORDERS|1|ADMISSION Diet
14294|ONEHUNDREDNINETYSIX,PATIENT|1|13|NURSING|1|Cleanse wound with betadine and cover with 4X4s
35199|TWO,INPATIENT|1|18|DIET ORDERS|1|REGULAR Diet
33597|EIGHT,INPATIENT|1|48|NON-VA MEDICATIONS|1|PHYTONADIONE TAB  5MG
33597|EIGHT,INPATIENT|1|48|NON-VA MEDICATIONS|2| TAKE ONE-HALF TABLET BY MOUTH EVERY 24 HOURS Dec 02, 2013
33599|EIGHT,INPATIENT|1|48|NON-VA MEDICATIONS|1|ASCORBIC ACID TAB  500MG
33599|EIGHT,INPATIENT|1|48|NON-VA MEDICATIONS|2| TAKE TWO TABLETS BY MOUTH EVERY 24 HOURS Dec 02, 2013
38006|EIGHTEEN,INPATIENT|1|48|NON-VA MEDICATIONS|1|ACETAMINOPHEN TAB  325MG
38006|EIGHTEEN,INPATIENT|1|48|NON-VA MEDICATIONS|2| TAKE ONE TABLET BY MOUTH Q6H PRN
38007|EIGHTEEN,INPATIENT|1|48|NON-VA MEDICATIONS|1|ASPIRIN BUFFERED TAB  325MG
38007|EIGHTEEN,INPATIENT|1|48|NON-VA MEDICATIONS|2| TAKE ONE TABLET BY MOUTH 3ID
38018|EIGHTEEN,INPATIENT|1|48|NON-VA MEDICATIONS|1|ACETAZOLAMIDE CAP,SA  500MG
38018|EIGHTEEN,INPATIENT|1|48|NON-VA MEDICATIONS|2| TAKE 1 CAPSULE BY MOUTH 3XW
38269|ONE,INPATIENT TWO|1|18|DIET ORDERS|1|REGULAR Diet
38270|ONE,INPATIENT THREE|1|18|DIET ORDERS|1|REGULAR Diet
38421|EHMP,FIVE|1|15|M.A.S.|1|Admission to VA Hospital
38421|EHMP,FIVE|1|15|M.A.S.|2| Specialty:  NHCU
38421|EHMP,FIVE|1|15|M.A.S.|3| Attending: PROVIDER,TEN
38421|EHMP,FIVE|1|15|M.A.S.|4| Primary: PROVIDER,NINE
38421|EHMP,FIVE|1|15|M.A.S.|5| Admit to NHCU
38422|EHMP,FIVE|1|45|DIAGNOSIS|1|Diagnosis Amputee
38423|EHMP,FIVE|1|45|DIAGNOSIS|1|Diagnosis Requires assistance with ADL's
38424|EHMP,FIVE|1|46|CONDITION|1|Condition
38424|EHMP,FIVE|1|46|CONDITION|2| Fair
38426|EHMP,FIVE|1|13|NURSING|1|Call HO on BPsys < 100 BPdia > 120 Pulse < 60, > 120 Temp > 101
38427|EHMP,FIVE|1|25|ACTIVITY|1|Activity Ad Lib
38428|EHMP,FIVE|1|25|ACTIVITY|1|Provide Trapeze
38429|EHMP,FIVE|1|25|ACTIVITY|1|Turn Patient While in bed or chair, reposition every 2 hours
38430|EHMP,FIVE|1|13|NURSING|1|Skin & Wound
38430|EHMP,FIVE|1|13|NURSING|2| Pressure ulcer on Sacrum: Clean with NS and pat dry.  Dress with moistened Aquacel Ag and cover with Mepilex border 4x4.  Change every 3 days and PRN.  Supplies available in TSS.
39069|TRASH,PAT A|1|42|MAMMOGRAPHY|1|MAMMOGRAM UNILAT
40976|TRASH,PAT A|1|6|CHEMISTRY|1|CBC + AUTO DIFF PANEL (ONC) BLOOD   SP
40992|TRASH,PAT A|1|6|CHEMISTRY|1|LYME DISEASE BLOOD   SERUM SP
38856|MEDICATIONS,REVIEW|1|48|NON-VA MEDICATIONS|1|ASPIRIN TAB,EC  81MG
38856|MEDICATIONS,REVIEW|1|48|NON-VA MEDICATIONS|2| TAKE ONE TABLET BY MOUTH EVERY MORNING  Non-VA medication recommended by VA provider.  
38998|PATIENT,MICHAEL EARL|1|9|GENERAL RADIOLOGY|1|KNEE 2 VIEWS BILATERAL EXAM
44260|PATIENT,MICHAEL EARL|1|8|MICROBIOLOGY|1|BACTERIA IDENTIFIED IN SPUTUM BY CULTURE SPUTUM SP
40967|PATIENT,BROOKE ANNE|1|9|GENERAL RADIOLOGY|1|ABDOMEN 1 VIEW
41203|PATIENT,HUGH JAMES|1|8|MICROBIOLOGY|1|BACTERIAL IDENTIFICATION URINE WC
39002|PATIENT,SIMON|1|8|MICROBIOLOGY|1|BLOOD CULTURE SET #1 BLOOD   SERUM SP
39003|PATIENT,SIMON|1|6|CHEMISTRY|1|GLUCOSE TOLERANCE TEST BLOOD   SERUM SP
40956|PATIENT,GRADEN DAPHNE|1|18|DIET ORDERS|1|2400 CALORIE ADA, NO SWEETS (ncs) Diet
40958|PATIENT,GRADEN DAPHNE|1|6|CHEMISTRY|1|GLUCOSE BLOOD   SERUM SP
40959|PATIENT,GRADEN DAPHNE|1|6|CHEMISTRY|1|CHOLESTEROL BLOOD   SERUM SP
40959|PATIENT,GRADEN DAPHNE|1|6|CHEMISTRY|2|  Added by 1 on Mar 29, 2016@10:22
41072|PATIENT,CONCEPT RELATIONSHIP|1|13|NURSING|1|Call HO on BPsys < 100 BPdia > 120 Pulse < 60, > 120 Temp > 101
41073|PATIENT,CONCEPT RELATIONSHIP|1|13|NURSING|1|Skin & Wound
41073|PATIENT,CONCEPT RELATIONSHIP|1|13|NURSING|2| Pressure ulcer on Sacrum: Clean with NS and pat dry.  Dress with moistened Aquacel Ag and cover with Mepilex border 4x4.  Change every 3 days and PRN.  Supplies available in TSS.
41074|PATIENT,CONCEPT RELATIONSHIP|1|15|M.A.S.|1|Admission to VA Hospital
41074|PATIENT,CONCEPT RELATIONSHIP|1|15|M.A.S.|2| Specialty:  NHCU
41074|PATIENT,CONCEPT RELATIONSHIP|1|15|M.A.S.|3| Attending: PROVIDER,TEN
41074|PATIENT,CONCEPT RELATIONSHIP|1|15|M.A.S.|4| Primary: PROVIDER,NINE
41074|PATIENT,CONCEPT RELATIONSHIP|1|15|M.A.S.|5| Admit to NHCU
41094|PATIENT,CONCEPT RELATIONSHIP|1|25|ACTIVITY|1|Activity Ad Lib
41095|PATIENT,CONCEPT RELATIONSHIP|1|25|ACTIVITY|1|Provide Trapeze
41096|PATIENT,CONCEPT RELATIONSHIP|1|25|ACTIVITY|1|Turn Patient While in bed or chair, reposition every 2 hours
41101|PATIENT,CONCEPT RELATIONSHIP|1|45|DIAGNOSIS|1|Diagnosis Amputee
41102|PATIENT,CONCEPT RELATIONSHIP|1|45|DIAGNOSIS|1|Diagnosis Requires assistance with ADL's
41103|PATIENT,CONCEPT RELATIONSHIP|1|46|CONDITION|1|Condition
41103|PATIENT,CONCEPT RELATIONSHIP|1|46|CONDITION|2| Fair
41108|PATIENT,CONCEPT RELATIONSHIP|1|6|CHEMISTRY|1|POTASSIUM BLOOD   SERUM SP
41115|PATIENT,CONCEPT RELATIONSHIP|1|6|CHEMISTRY|1|GAS PANEL - ARTERIAL ARTERIAL BLOOD SP
41118|PATIENT,CONCEPT RELATIONSHIP|1|6|CHEMISTRY|1|CBC BLOOD   SP
41143|PATIENT,CONCEPT RELATIONSHIP|1|6|CHEMISTRY|1|URINALYSIS URINE SP
41167|PATIENT,CONCEPT RELATIONSHIP|1|13|NURSING|1|Oxygen Therapy
41168|PATIENT,CONCEPT RELATIONSHIP|1|13|NURSING|1|Mask 50 per cent
41168|PATIENT,CONCEPT RELATIONSHIP|1|13|NURSING|2| PLACE PATIENT ON 50% O2 AS NEEDED
41179|PATIENT,CONCEPT RELATIONSHIP|1|6|CHEMISTRY|1|SaO2 ARTERIAL BLOOD SP
41182|PATIENT,CONCEPT RELATIONSHIP|1|6|CHEMISTRY|1|T-4 BLOOD   SERUM SP
41428|PATIENT,DAN II|1|48|NON-VA MEDICATIONS|1|ACETAMINOPHEN TAB  325MG
41428|PATIENT,DAN II|1|48|NON-VA MEDICATIONS|2| TAKE TWO TABLETS BY MOUTH Q6H PRN Nov 20, 2015  Non-VA medication recommended by VA provider.   FOR PAIN OR FEVER
44351|TRAINING,PATIENT|1|13|NURSING|1|Call HO on BPsys < 100 BPdia > 120 Pulse < 60, > 120 Temp > 101
44352|TRAINING,PATIENT|1|13|NURSING|1|Skin & Wound
44352|TRAINING,PATIENT|1|13|NURSING|2| Pressure ulcer on Sacrum: Clean with NS and pat dry.  Dress with moistened Aquacel Ag and cover with Mepilex border 4x4.  Change every 3 days and PRN.  Supplies available in TSS.
44353|TRAINING,PATIENT|1|15|M.A.S.|1|Admission to VA Hospital
44353|TRAINING,PATIENT|1|15|M.A.S.|2| Specialty:  NHCU
44353|TRAINING,PATIENT|1|15|M.A.S.|3| Attending: PROVIDER,TEN
44353|TRAINING,PATIENT|1|15|M.A.S.|4| Primary: PROVIDER,NINE
44353|TRAINING,PATIENT|1|15|M.A.S.|5| Admit to NHCU
44373|TRAINING,PATIENT|1|25|ACTIVITY|1|Activity Ad Lib
44374|TRAINING,PATIENT|1|25|ACTIVITY|1|Provide Trapeze
44375|TRAINING,PATIENT|1|25|ACTIVITY|1|Turn Patient While in bed or chair, reposition every 2 hours
44380|TRAINING,PATIENT|1|45|DIAGNOSIS|1|Diagnosis Amputee
44381|TRAINING,PATIENT|1|45|DIAGNOSIS|1|Diagnosis Requires assistance with ADL's
44382|TRAINING,PATIENT|1|46|CONDITION|1|Condition
44382|TRAINING,PATIENT|1|46|CONDITION|2| Fair
(124 rows)
