ID|FIRSTNAME|LASTNAME|AGE|DATETIME|ID|FIRSTNAME|LASTNAME|AGE|DATETIME
(0 rows)
;; This is a generated file; do not modify. Generated M code corresponds to below SQL query
;; ---------------------------------------------------------
;  SELECT * FROM namesWithAges AS t1
;  CROSS JOIN namesWithAges AS t2
;  WHERE t1.id = t2.age;
;; ---------------------------------------------------------

octoPlan0(cursorId,wrapInTp)
    DO:'$GET(^%ydbAIMOctoCache("NAMESWITHAGES","AGE","completed?")) xrefPlan^%ydboctoXfmDvuo7xJZ0ji6igiLkrH6(cursorId)
    NEW %ydboctop,%ydboctoexpr
    TSTART:wrapInTp ():(serial)
    DO octoPlan1(cursorId)
    TCOMMIT:wrapInTp
    QUIT

octoPlan1(cursorId)
    NEW %ydboctoz,%ydboctoexpr KILL %ydboctocursor(cursorId,"keys",4,"","")
    SET %ydboctocursor(cursorId,"keys",1,"NAMESWITHAGES","ID")=""
    FOR  SET %ydboctocursor(cursorId,"keys",1,"NAMESWITHAGES","ID")=$ORDER(^names(%ydboctocursor(cursorId,"keys",1,"NAMESWITHAGES","ID"))) QUIT:(%ydboctocursor(cursorId,"keys",1,"NAMESWITHAGES","ID")="")  DO
    . SET %ydboctoexpr=%ydboctocursor(cursorId,"keys",1,"NAMESWITHAGES","ID")
    . SET %ydboctocursor(cursorId,"keys",2,"NAMESWITHAGES","AGE")=%ydboctoexpr IF '$ZYISSQLNULL(%ydboctocursor(cursorId,"keys",2,"NAMESWITHAGES","AGE")) IF $DATA(^%ydbAIMDXtoXI8zgdGIqUuCoYeqwF6(3,%ydboctocursor(cursorId,"keys",2,"NAMESWITHAGES","AGE"))) DO
    . . SET %ydboctocursor(cursorId,"keys",2,"NAMESWITHAGES","ID")=""
    . . FOR  SET %ydboctocursor(cursorId,"keys",2,"NAMESWITHAGES","ID")=$ORDER(^%ydbAIMDXtoXI8zgdGIqUuCoYeqwF6(3,%ydboctocursor(cursorId,"keys",2,"NAMESWITHAGES","AGE"),%ydboctocursor(cursorId,"keys",2,"NAMESWITHAGES","ID"))) QUIT:(%ydboctocursor(cursorId,"keys",2,"NAMESWITHAGES","ID")="")  DO
    . . . SET %ydboctoexpr=1
    . . . DO:%ydboctoexpr
    . . . . SET:1&$INCREMENT(%ydboctocursor(cursorId,"keys",4,"","")) %ydboctoz=42
    . . . . SET %ydboctoexpr=%ydboctocursor(cursorId,"keys",1,"NAMESWITHAGES","ID")
    . . . . SET %ydboctoexpr=$$str2mval^%ydboctoplanhelpers(%ydboctoexpr)
    . . . . SET %ydboctoexpr(0)=%ydboctoexpr
    . . . . SET %ydboctoexpr=$PIECE($GET(^names(%ydboctocursor(cursorId,"keys",1,"NAMESWITHAGES","ID"))),"|",1) SET:(""=%ydboctoexpr) %ydboctoexpr=$ZYSQLNULL
    . . . . SET %ydboctoexpr=$$str2mval^%ydboctoplanhelpers(%ydboctoexpr)
    . . . . SET %ydboctoexpr=%ydboctoexpr(0)_%ydboctoexpr
    . . . . SET %ydboctoexpr(0)=%ydboctoexpr
    . . . . SET %ydboctoexpr=$PIECE($GET(^names(%ydboctocursor(cursorId,"keys",1,"NAMESWITHAGES","ID"))),"|",2) SET:(""=%ydboctoexpr) %ydboctoexpr=$ZYSQLNULL
    . . . . SET %ydboctoexpr=$$str2mval^%ydboctoplanhelpers(%ydboctoexpr)
    . . . . SET %ydboctoexpr=%ydboctoexpr(0)_%ydboctoexpr
    . . . . SET %ydboctoexpr(0)=%ydboctoexpr
    . . . . SET %ydboctoexpr=$PIECE($GET(^names(%ydboctocursor(cursorId,"keys",1,"NAMESWITHAGES","ID"))),"|",3) SET:(""=%ydboctoexpr) %ydboctoexpr=$ZYSQLNULL
    . . . . SET %ydboctoexpr=$$str2mval^%ydboctoplanhelpers(%ydboctoexpr)
    . . . . SET %ydboctoexpr=%ydboctoexpr(0)_%ydboctoexpr
    . . . . SET %ydboctoexpr(0)=%ydboctoexpr
    . . . . SET %ydboctoexpr=$ZDATE($HOROLOG,"YEAR-MM-DD 24:60:SS") SET:(""=%ydboctoexpr) %ydboctoexpr=$ZYSQLNULL
    . . . . SET %ydboctoexpr=$$str2mval^%ydboctoplanhelpers(%ydboctoexpr)
    . . . . SET %ydboctoexpr=%ydboctoexpr(0)_%ydboctoexpr
    . . . . SET %ydboctoexpr(0)=%ydboctoexpr
    . . . . SET %ydboctoexpr=%ydboctocursor(cursorId,"keys",2,"NAMESWITHAGES","ID")
    . . . . SET %ydboctoexpr=$$str2mval^%ydboctoplanhelpers(%ydboctoexpr)
    . . . . SET %ydboctoexpr=%ydboctoexpr(0)_%ydboctoexpr
    . . . . SET %ydboctoexpr(0)=%ydboctoexpr
    . . . . SET %ydboctoexpr=$PIECE($GET(^names(%ydboctocursor(cursorId,"keys",2,"NAMESWITHAGES","ID"))),"|",1) SET:(""=%ydboctoexpr) %ydboctoexpr=$ZYSQLNULL
    . . . . SET %ydboctoexpr=$$str2mval^%ydboctoplanhelpers(%ydboctoexpr)
    . . . . SET %ydboctoexpr=%ydboctoexpr(0)_%ydboctoexpr
    . . . . SET %ydboctoexpr(0)=%ydboctoexpr
    . . . . SET %ydboctoexpr=$PIECE($GET(^names(%ydboctocursor(cursorId,"keys",2,"NAMESWITHAGES","ID"))),"|",2) SET:(""=%ydboctoexpr) %ydboctoexpr=$ZYSQLNULL
    . . . . SET %ydboctoexpr=$$str2mval^%ydboctoplanhelpers(%ydboctoexpr)
    . . . . SET %ydboctoexpr=%ydboctoexpr(0)_%ydboctoexpr
    . . . . SET %ydboctoexpr(0)=%ydboctoexpr
    . . . . SET %ydboctoexpr=%ydboctocursor(cursorId,"keys",2,"NAMESWITHAGES","AGE")
    . . . . SET %ydboctoexpr=$$str2mval^%ydboctoplanhelpers(%ydboctoexpr)
    . . . . SET %ydboctoexpr=%ydboctoexpr(0)_%ydboctoexpr
    . . . . SET %ydboctoexpr(0)=%ydboctoexpr
    . . . . SET %ydboctoexpr=$ZDATE($HOROLOG,"YEAR-MM-DD 24:60:SS") SET:(""=%ydboctoexpr) %ydboctoexpr=$ZYSQLNULL
    . . . . SET %ydboctoexpr=$$str2mval^%ydboctoplanhelpers(%ydboctoexpr)
    . . . . SET %ydboctoexpr=%ydboctoexpr(0)_%ydboctoexpr
    . . . . SET %ydboctocursor(cursorId,"keys",4,"","",%ydboctocursor(cursorId,"keys",4,"",""))=%ydboctoexpr
    . ZKILL %ydboctocursor(cursorId,"keys",2,"NAMESWITHAGES","ID")
    . ZKILL %ydboctocursor(cursorId,"keys",2,"NAMESWITHAGES","AGE")
    ZKILL %ydboctocursor(cursorId,"keys",1,"NAMESWITHAGES","ID")
    QUIT
